"y","c_age","c_breastf","y_hat_age","y_hat_breastf","new_model"
-0.242650617006476,26,13,-0.223467276878075,-0.210842073371697,-0.208294623913305
0.180783029351458,6,0,0.438993846271059,0.461753125761714,0.486523975013814
1.72380394404563,54,6,-0.106722791447508,-0.573224745486477,-0.354488385855559
-0.386187446280352,29,18,-0.256074931519444,-0.105155004140411,-0.12620151687114
-0.981865287766938,41,18,-0.260869307542797,-0.105155004140411,-0.12706866032048
-1.10387159264973,54,18,-0.106722791447508,-0.105155004140411,-0.0991886732231767
1.57309027330806,59,18,-0.037270023825971,-0.105155004140411,-0.0866269733923257
-0.271357982861251,21,1,-0.131090668386641,-0.130310054331903,-0.135383533192505
-0.221120092615395,53,19,-0.120667887284956,-0.100338648969205,-0.0918898283999072
-0.271357982861251,3,0,0.585924360160541,0.461753125761714,0.51309882688336
-0.536901117017922,27,14,-0.236087954006469,-0.229354565686279,-0.190835487132344
-0.450779019453596,59,15,-0.037270023825971,-0.205099904858235,-0.13513402840268
1.80992604160995,51,16,-0.148438445597866,-0.162664981122317,-0.135498540661531
1.03482716353102,2,0,0.635352062515572,0.461753125761714,0.522038657239667
-0.364656921889271,38,12,-0.276112735178832,-0.140210724787654,-0.237558530702564
0.0228925171501944,38,18,-0.276112735178832,-0.105155004140411,-0.129825690298041
-0.0560527389504374,21,1,-0.131090668386641,-0.130310054331903,-0.135383533192505
0.209490395206233,11,0,0.207874051700769,0.461753125761714,0.444722077353228
-0.91009687313,56,18,-0.0788755928747173,-0.105155004140411,-0.0941520395283515
0.288435651306865,7,0,0.390914419093131,0.461753125761714,0.477828002874309
1.09941873670426,23,18,-0.174120079532092,-0.105155004140411,-0.111378605047714
0.202313553742539,5,0,0.487624821163561,0.461753125761714,0.495319703823501
0.0659535659323573,9,0,0.297147242992434,0.461753125761714,0.46086863378794
0.625747200100474,49,15,-0.17560946988676,-0.205099904858235,-0.160155041325468
-0.343126397498189,52,11,-0.134590152255301,-0.0362833228582434,-0.231703934037461
-0.379010604816658,20,1,-0.106434666474883,-0.130310054331903,-0.130924081025931
0.611393517173086,18,17,-0.0507773274942666,-0.125508189234531,-0.0988900205595091
0.783637712301737,46,18,-0.213471020744429,-0.105155004140411,-0.118495883861777
0.927174541575613,55,21,-0.0927869295744393,-0.11362956791585,-0.0843479761933003
0.252551443988396,8,0,0.343567575067933,0.461753125761714,0.469264530705372
-0.257004299933864,19,18,-0.079664450284841,-0.105155004140411,-0.0942947176437769
0.46785668789921,55,10,-0.0927869295744393,0.0534316890196584,-0.243884673067776
0.281258809843171,44,18,-0.235344997895045,-0.105155004140411,-0.122452160112282
0.302789334234253,20,19,-0.106434666474883,-0.100338648969205,-0.0893155112982959
-1.21152421460514,19,18,-0.079664450284841,-0.105155004140411,-0.0942947176437769
0.374557748871191,24,16,-0.192549381670437,-0.162664981122317,-0.143476744513981
-0.271357982861251,33,9,-0.277711639595145,0.0684351827411644,-0.29707370011859
-0.328772714570802,7,0,0.390914419093131,0.461753125761714,0.477828002874309
0.274081968379478,42,18,-0.253446409873935,-0.105155004140411,-0.125726104572386
-0.902920031666306,45,18,-0.224827342540188,-0.105155004140411,-0.120549865444746
-0.508193751163147,24,14,-0.192549381670437,-0.229354565686279,-0.182960804877357
0.91999770011192,15,14,0.048431471802272,-0.229354565686279,-0.13937536904848
1.48696817574373,16,1,0.0133008822100564,-0.130310054331903,-0.109267895489042
-0.178059043833232,1,0,0.684853509266806,0.461753125761714,0.530991825508933
0.855406126938675,6,0,0.438993846271059,0.461753125761714,0.486523975013814
-0.0775832633415188,46,9,-0.213471020744429,0.0684351827411644,-0.285454704957041
0.195136712278846,33,17,-0.277711639595145,-0.125508189234531,-0.139934903399396
-0.134997995051069,57,20,-0.0649907898343415,-0.104240527430944,-0.0719991529211501
1.33625450500616,3,0,0.585924360160541,0.461753125761714,0.51309882688336
-0.407717970671434,26,18,-0.223467276878075,-0.105155004140411,-0.12030387472065
1.42237660257049,7,0,0.390914419093131,0.461753125761714,0.477828002874309
1.19989451719598,52,18,-0.134590152255301,-0.105155004140411,-0.104228953596928
1.68791973672716,0,0,0.734380881970719,0.461753125761714,0.539949682922297
-0.371833763352965,55,24,-0.0927869295744393,-0.2411128017839,-0.191865380065027
0.396088273262272,6,0,0.438993846271059,0.461753125761714,0.486523975013814
-0.278534824324945,33,21,-0.277711639595145,-0.11362956791585,-0.117794716735673
-1.63495786096307,32,14,-0.274368103889179,-0.229354565686279,-0.19775909534515
0.152075663496683,53,18,-0.120667887284956,-0.105155004140411,-0.101710878082989
-0.0632295804141312,42,14,-0.253446409873935,-0.229354565686279,-0.193975055498034
0.790814553765431,47,20,-0.201397578637716,-0.104240527430944,-0.0966706123102923
-1.87179362926497,30,9,-0.263634317258273,0.0684351827411644,-0.294527579874951
0.518094578145067,33,12,-0.277711639595145,-0.140210724787654,-0.237847719427848
-0.156528519442151,49,19,-0.17560946988676,-0.100338648969205,-0.101826936632031
-0.752206360928736,22,10,-0.153644985317601,0.0534316890196584,-0.254891874864263
-0.278534824324945,35,24,-0.280658057221124,-0.2411128017839,-0.225845029734875
0.130545139105601,4,0,0.536646628619216,0.461753125761714,0.504186121268222
-0.127821153587375,33,12,-0.277711639595145,-0.140210724787654,-0.237847719427848
0.137721980569295,24,20,-0.192549381670437,-0.104240527430944,-0.0950702672390508
-0.536901117017922,49,21,-0.17560946988676,-0.11362956791585,-0.0993278240274607
-0.0560527389504374,59,18,-0.037270023825971,-0.105155004140411,-0.0866269733923257
0.726222980592187,54,12,-0.106722791447508,-0.140210724787654,-0.206921513627699
0.532448261072454,1,0,0.684853509266806,0.461753125761714,0.530991825508933
-0.902920031666306,35,14,-0.280658057221124,-0.229354565686279,-0.198896739076448
-0.493840068235759,20,0,-0.106434666474883,0.461753125761714,0.387874065284696
1.0635345293858,1,0,0.684853509266806,0.461753125761714,0.530991825508933
0.00136199275911303,10,0,0.251851589206192,0.461753125761714,0.452676153833714
-0.170882202369538,54,16,-0.106722791447508,-0.162664981122317,-0.127953563785449
-0.300065348716027,26,20,-0.223467276878075,-0.104240527430944,-0.100662288007992
-0.357480080425577,50,18,-0.162141664679371,-0.105155004140411,-0.109212107484229
1.23577872451445,2,0,0.635352062515572,0.461753125761714,0.522038657239667
3.57542904167863,18,17,-0.0507773274942666,-0.125508189234531,-0.0988900205595091
-0.823974775565674,34,19,-0.279794004213737,-0.100338648969205,-0.120670459965242
0.41044195618966,30,24,-0.263634317258273,-0.2411128017839,-0.222766000363762
0.97741243182147,53,18,-0.120667887284956,-0.105155004140411,-0.101710878082989
0.625747200100474,18,17,-0.0507773274942666,-0.125508189234531,-0.0988900205595091
-2.35981884879615,14,1,0.0855507411466391,-0.130310054331903,-0.0962002947027309
-0.127821153587375,26,15,-0.223467276878075,-0.205099904858235,-0.168810929731005
0.998942956212551,2,0,0.635352062515572,0.461753125761714,0.522038657239667
-2.40287989757831,35,16,-0.280658057221124,-0.162664981122317,-0.159412678713072
-0.658907421900717,43,16,-0.24491504362409,-0.162664981122317,-0.15294795422142
-0.565608482872697,31,20,-0.26970176520386,-0.104240527430944,-0.109024571961114
0.869759809866063,8,0,0.343567575067933,0.461753125761714,0.469264530705372
0.640100883027861,3,0,0.585924360160541,0.461753125761714,0.51309882688336
0.10901461471452,34,18,-0.279794004213737,-0.105155004140411,-0.130491509648324
0.625747200100474,51,16,-0.148438445597866,-0.162664981122317,-0.135498540661531
0.984589273285164,53,20,-0.120667887284956,-0.104240527430944,-0.0820692913703309
-1.01057265362171,9,0,0.297147242992434,0.461753125761714,0.46086863378794
0.553978785463536,43,17,-0.24491504362409,-0.125508189234531,-0.134003088035219
0.0874840903234387,34,18,-0.279794004213737,-0.105155004140411,-0.130491509648324
1.79557235868256,15,15,0.048431471802272,-0.205099904858235,-0.119633473133186
0.0228925171501944,55,16,-0.0927869295744393,-0.162664981122317,-0.125433029043225
0.539625102536148,11,0,0.207874051700769,0.461753125761714,0.444722077353228
0.130545139105601,30,15,-0.263634317258273,-0.205099904858235,-0.176075813790042
0.396088273262272,58,19,-0.0511257138749529,-0.100338648969205,-0.0793119580301948
0.991766114748858,22,18,-0.153644985317601,-0.105155004140411,-0.10767534027744
0.91999770011192,18,16,-0.0507773274942666,-0.162664981122317,-0.117834886745711
1.19989451719598,6,0,0.438993846271059,0.461753125761714,0.486523975013814
0.640100883027861,8,0,0.343567575067933,0.461753125761714,0.469264530705372
-0.264181141397558,26,20,-0.223467276878075,-0.104240527430944,-0.100662288007992
-0.40054112920774,32,14,-0.274368103889179,-0.229354565686279,-0.19775909534515
0.0300693586138882,48,17,-0.188734721416918,-0.125508189234531,-0.123841932934639
0.0946609317871324,27,22,-0.236087954006469,-0.133406047502607,-0.146105492268238
0.195136712278846,42,19,-0.253446409873935,-0.100338648969205,-0.115905054889304
1.70227341965454,0,0,0.734380881970719,0.461753125761714,0.539949682922297
0.309966175697946,13,8,0.124575185152253,-0.0373638235250044,-0.244116002594062
-0.953157921912163,44,19,-0.235344997895045,-0.100338648969205,-0.1126311104292
0.46785668789921,48,14,-0.188734721416918,-0.229354565686279,-0.182270859484216
1.30037029768769,34,24,-0.279794004213737,-0.2411128017839,-0.225688751232398
1.25013240744183,7,0,0.390914419093131,0.461753125761714,0.477828002874309
2.02523128552077,2,0,0.635352062515572,0.461753125761714,0.522038657239667
1.00611979767625,3,0,0.585924360160541,0.461753125761714,0.51309882688336
-0.113467470659988,36,17,-0.280328262920724,-0.125508189234531,-0.140408163687099
-0.328772714570802,2,0,0.635352062515572,0.461753125761714,0.522038657239667
0.711869297664799,4,0,0.536646628619216,0.461753125761714,0.504186121268222
0.661631407418943,4,0,0.536646628619216,0.461753125761714,0.504186121268222
-1.53448208047136,20,1,-0.106434666474883,-0.130310054331903,-0.130924081025931
0.998942956212551,7,0,0.390914419093131,0.461753125761714,0.477828002874309
0.661631407418943,39,15,-0.272220680616781,-0.205099904858235,-0.177628801854332
1.5228523830622,5,0,0.487624821163561,0.461753125761714,0.495319703823501
-1.78567153170064,27,17,-0.236087954006469,-0.125508189234531,-0.132406560582766
-1.23305473899622,10,0,0.251851589206192,0.461753125761714,0.452676153833714
1.53720606598959,14,11,0.0855507411466391,-0.0362833228582434,-0.191887755098711
0.482210370826598,5,0,0.487624821163561,0.461753125761714,0.495319703823501
0.073130407396051,22,21,-0.153644985317601,-0.11362956791585,-0.0953551779897876
0.654454565955249,11,0,0.207874051700769,0.461753125761714,0.444722077353228
0.360204065943803,4,0,0.536646628619216,0.461753125761714,0.504186121268222
0.403265114725966,31,18,-0.26970176520386,-0.105155004140411,-0.128666158673772
-0.558431641409003,35,15,-0.280658057221124,-0.205099904858235,-0.179154843161155
-0.436425336526209,32,19,-0.274368103889179,-0.100338648969205,-0.11968909473642
-0.0560527389504374,19,17,-0.079664450284841,-0.125508189234531,-0.104114742019847
0.927174541575613,47,13,-0.201397578637716,-0.210842073371697,-0.204302948215606
-0.228296934079089,53,16,-0.120667887284956,-0.162664981122317,-0.130475768645261
0.31714301716164,58,24,-0.0511257138749529,-0.2411128017839,-0.184330249297351
-0.465132702380984,55,18,-0.0927869295744393,-0.105155004140411,-0.0966681384809528
0.0803072488597449,11,0,0.207874051700769,0.461753125761714,0.444722077353228
-0.0416990560230498,7,0,0.390914419093131,0.461753125761714,0.477828002874309
0.489387212290292,2,0,0.635352062515572,0.461753125761714,0.522038657239667
-1.36223788534271,24,17,-0.192549381670437,-0.125508189234531,-0.12453187832778
3.91991743193593,29,19,-0.256074931519444,-0.100338648969205,-0.116380467188057
0.345850383016416,25,22,-0.208978694360131,-0.133406047502607,-0.141202327225636
0.439149322044435,12,1,0.16539504136478,-0.130310054331903,-0.0817591116240365
1.14247978548643,7,0,0.390914419093131,0.461753125761714,0.477828002874309
0.747753504983268,27,10,-0.236087954006469,0.0534316890196584,-0.269803070793519
-0.0129916901682746,22,9,-0.153644985317601,0.0684351827411644,-0.274634161372704
0.475033529362904,1,0,0.684853509266806,0.461753125761714,0.530991825508933
0.876936651329757,47,18,-0.201397578637716,-0.105155004140411,-0.116312199022951
0.955881907430389,41,9,-0.260869307542797,0.0684351827411644,-0.294027481415744
-0.623023214582248,6,0,0.438993846271059,0.461753125761714,0.486523975013814
1.08506505377688,10,0,0.251851589206192,0.461753125761714,0.452676153833714
-0.221120092615395,37,19,-0.278813606409733,-0.100338648969205,-0.120493138551704
0.790814553765431,26,19,-0.223467276878075,-0.100338648969205,-0.110482825037568
-0.0273453730956622,18,1,-0.0507773274942666,-0.130310054331903,-0.120857516227992
0.776460870838044,8,0,0.343567575067933,0.461753125761714,0.469264530705372
0.848229285474982,38,20,-0.276112735178832,-0.104240527430944,-0.110184103585383
-0.257004299933864,37,12,-0.278813606409733,-0.140210724787654,-0.238047028639309
2.31948178553221,27,18,-0.236087954006469,-0.105155004140411,-0.122586536206696
0.518094578145067,8,0,0.343567575067933,0.461753125761714,0.469264530705372
-0.601492690191166,16,1,0.0133008822100564,-0.130310054331903,-0.109267895489042
0.295612492770559,31,24,-0.26970176520386,-0.2411128017839,-0.223863400257847
0.446326163508129,31,10,-0.26970176520386,0.0534316890196584,-0.275882693260595
-0.931627397521081,24,2,-0.192549381670437,-0.627061200832255,-0.507087863650291
0.754930346446962,36,18,-0.280328262920724,-0.105155004140411,-0.130588139311029
0.833875602547594,1,0,0.684853509266806,0.461753125761714,0.530991825508933
0.503740895217679,22,17,-0.153644985317601,-0.125508189234531,-0.117495364653511
-0.953157921912163,19,12,-0.079664450284841,-0.140210724787654,-0.202027558048299
-1.65648838535416,17,1,-0.0197816182806654,-0.130310054331903,-0.115251421488797
-0.536901117017922,35,18,-0.280658057221124,-0.105155004140411,-0.1306477881508
-0.0632295804141312,17,1,-0.0197816182806654,-0.130310054331903,-0.115251421488797
0.403265114725966,11,0,0.207874051700769,0.461753125761714,0.444722077353228
0.46785668789921,52,12,-0.134590152255301,-0.140210724787654,-0.21196179400145
1.73098078550932,1,0,0.684853509266806,0.461753125761714,0.530991825508933
0.116191456178214,50,15,-0.162141664679371,-0.205099904858235,-0.157719162494584
-1.7210799585274,32,18,-0.274368103889179,-0.105155004140411,-0.129510144419502
-1.11104843411343,36,8,-0.280328262920724,-0.0373638235250044,-0.317349593555988
-0.0775832633415188,30,18,-0.263634317258273,-0.105155004140411,-0.127568758779687
-1.09669475118604,32,15,-0.274368103889179,-0.205099904858235,-0.178017199429856
-1.62778101949938,48,19,-0.188734721416918,-0.100338648969205,-0.104200858875486
0.338673541552722,16,14,0.0133008822100564,-0.229354565686279,-0.145729326370137
1.35778502939724,3,0,0.585924360160541,0.461753125761714,0.51309882688336
0.503740895217679,59,16,-0.037270023825971,-0.162664981122317,-0.115391863954598
-0.981865287766938,30,16,-0.263634317258273,-0.162664981122317,-0.156333649341959
1.44390712696157,7,0,0.390914419093131,0.461753125761714,0.477828002874309
1.1783639928049,6,0,0.438993846271059,0.461753125761714,0.486523975013814
1.1711871513412,4,0,0.536646628619216,0.461753125761714,0.504186121268222
0.130545139105601,15,13,0.048431471802272,-0.210842073371697,-0.159117167315487
-0.701968470682879,41,15,-0.260869307542797,-0.205099904858235,-0.175575715330835
0.345850383016416,3,0,0.585924360160541,0.461753125761714,0.51309882688336
0.489387212290292,20,1,-0.106434666474883,-0.130310054331903,-0.130924081025931
-0.199589568224313,47,21,-0.201397578637716,-0.11362956791585,-0.103992036735298
-0.802444251174593,19,12,-0.079664450284841,-0.140210724787654,-0.202027558048299
1.39366923671571,8,0,0.343567575067933,0.461753125761714,0.469264530705372
0.037246200077582,48,15,-0.188734721416918,-0.205099904858235,-0.162528963568923
0.991766114748858,44,20,-0.235344997895045,-0.104240527430944,-0.102810573399624
0.195136712278846,32,19,-0.274368103889179,-0.100338648969205,-0.11968909473642
-1.70672627560001,28,26,-0.246925762924961,-0.427503933363213,-0.291422165483115
0.0228925171501944,3,0,0.585924360160541,0.461753125761714,0.51309882688336
1.25730924890553,3,0,0.585924360160541,0.461753125761714,0.51309882688336
-0.185235885296926,28,24,-0.246925762924961,-0.2411128017839,-0.219743977608869
0.037246200077582,13,1,0.124575185152253,-0.130310054331903,-0.0891420683936564
0.991766114748858,48,17,-0.188734721416918,-0.125508189234531,-0.123841932934639
0.288435651306865,36,18,-0.280328262920724,-0.105155004140411,-0.130588139311029
-0.0919369462689064,49,18,-0.17560946988676,-0.105155004140411,-0.111647986315113
-0.694791629219186,8,0,0.343567575067933,0.461753125761714,0.469264530705372
-0.335949556034496,12,1,0.16539504136478,-0.130310054331903,-0.0817591116240365
-0.00581484870458077,24,18,-0.192549381670437,-0.105155004140411,-0.114711853951709
-0.0775832633415188,55,15,-0.0927869295744393,-0.205099904858235,-0.145175193491307
-0.572785324336391,36,10,-0.280328262920724,0.0534316890196584,-0.277804673897852
-0.357480080425577,38,18,-0.276112735178832,-0.105155004140411,-0.129825690298041
-0.0632295804141312,23,14,-0.174120079532092,-0.229354565686279,-0.179627555973362
-0.300065348716027,51,16,-0.148438445597866,-0.162664981122317,-0.135498540661531
-0.924450556057387,13,1,0.124575185152253,-0.130310054331903,-0.0891420683936564
-0.773736885319818,23,22,-0.174120079532092,-0.133406047502607,-0.134897561109256
0.324319858625334,4,0,0.536646628619216,0.461753125761714,0.504186121268222
1.11377241963165,17,1,-0.0197816182806654,-0.130310054331903,-0.115251421488797
1.04918084645841,22,21,-0.153644985317601,-0.11362956791585,-0.0953551779897876
-0.486663226772065,40,24,-0.267136278560998,-0.2411128017839,-0.223399388898309
-0.0201685316319684,10,0,0.251851589206192,0.461753125761714,0.452676153833714
-1.21870105606883,31,21,-0.26970176520386,-0.11362956791585,-0.11634599638612
0.41044195618966,16,1,0.0133008822100564,-0.130310054331903,-0.109267895489042
-0.658907421900717,11,0,0.207874051700769,0.461753125761714,0.444722077353228
0.324319858625334,17,1,-0.0197816182806654,-0.130310054331903,-0.115251421488797
0.597039834245699,9,0,0.297147242992434,0.461753125761714,0.46086863378794
0.884113492793451,6,0,0.438993846271059,0.461753125761714,0.486523975013814
0.159252504960377,16,1,0.0133008822100564,-0.130310054331903,-0.109267895489042
1.89604813917428,10,0,0.251851589206192,0.461753125761714,0.452676153833714
-2.27369675123182,28,16,-0.246925762924961,-0.162664981122317,-0.153311626587067
-1.71390311706371,15,1,0.048431471802272,-0.130310054331903,-0.102913938167385
-0.615846373118554,47,21,-0.201397578637716,-0.11362956791585,-0.103992036735298
0.475033529362904,10,0,0.251851589206192,0.461753125761714,0.452676153833714
-0.701968470682879,18,12,-0.0507773274942666,-0.140210724787654,-0.196802836587961
0.934351383039307,23,16,-0.174120079532092,-0.162664981122317,-0.140143495609986
0.41044195618966,45,16,-0.224827342540188,-0.162664981122317,-0.149314756007018
1.45826080988895,2,0,0.635352062515572,0.461753125761714,0.522038657239667
1.0563576879221,7,0,0.390914419093131,0.461753125761714,0.477828002874309
-0.106290629196294,26,24,-0.223467276878075,-0.2411128017839,-0.215501116304724
-0.680437946291798,20,1,-0.106434666474883,-0.130310054331903,-0.130924081025931
-0.0273453730956622,25,19,-0.208978694360131,-0.100338648969205,-0.107862321481011
-0.859858982884143,49,20,-0.17560946988676,-0.104240527430944,-0.0920063996024548
1.1711871513412,14,1,0.0855507411466391,-0.130310054331903,-0.0962002947027309
0.510917736681373,5,0,0.487624821163561,0.461753125761714,0.495319703823501
-1.89332415365605,29,18,-0.256074931519444,-0.105155004140411,-0.12620151687114
-0.723498995073961,33,24,-0.277711639595145,-0.2411128017839,-0.2253121206074
-0.859858982884143,37,18,-0.278813606409733,-0.105155004140411,-0.130314188234786
-0.228296934079089,57,19,-0.0649907898343415,-0.100338648969205,-0.0818196899507264
-0.142174836514763,31,16,-0.26970176520386,-0.162664981122317,-0.157431049236044
-2.37417253172354,42,15,-0.253446409873935,-0.205099904858235,-0.17423315958274
-0.709145312146573,19,18,-0.079664450284841,-0.105155004140411,-0.0942947176437769
0.353027224480109,40,8,-0.267136278560998,-0.0373638235250044,-0.314963601559194
-1.16846316582298,44,13,-0.235344997895045,-0.210842073371697,-0.210442909304937
0.424795639117047,18,5,-0.0507773274942666,-0.855372830425754,-0.378638642712958
-0.802444251174593,6,0,0.438993846271059,0.461753125761714,0.486523975013814
0.654454565955249,26,18,-0.223467276878075,-0.105155004140411,-0.12030387472065
0.884113492793451,2,0,0.635352062515572,0.461753125761714,0.522038657239667
0.783637712301737,14,1,0.0855507411466391,-0.130310054331903,-0.0962002947027309
-1.07516422679496,30,18,-0.263634317258273,-0.105155004140411,-0.127568758779687
-0.0775832633415188,54,22,-0.106722791447508,-0.133406047502607,-0.122707629284719
1.60897448062652,0,0,0.734380881970719,0.461753125761714,0.539949682922297
0.0515998830049696,5,0,0.487624821163561,0.461753125761714,0.495319703823501
-0.314419031643414,23,18,-0.174120079532092,-0.105155004140411,-0.111378605047714
-0.615846373118554,46,19,-0.213471020744429,-0.100338648969205,-0.108674834178695
-0.709145312146573,59,16,-0.037270023825971,-0.162664981122317,-0.115391863954598
0.553978785463536,34,16,-0.279794004213737,-0.162664981122317,-0.159256400210596
0.884113492793451,12,1,0.16539504136478,-0.130310054331903,-0.0817591116240365
2.3338354684596,34,18,-0.279794004213737,-0.105155004140411,-0.130491509648324
1.78121867575518,7,0,0.390914419093131,0.461753125761714,0.477828002874309
1.02047348060363,37,9,-0.278813606409733,0.0684351827411644,-0.29727300933005
-0.572785324336391,44,18,-0.235344997895045,-0.105155004140411,-0.122452160112282
0.647277724491555,9,0,0.297147242992434,0.461753125761714,0.46086863378794
-0.300065348716027,32,17,-0.274368103889179,-0.125508189234531,-0.139330168795572
1.70945026111824,1,0,0.684853509266806,0.461753125761714,0.530991825508933
3.86250270022638,7,0,0.390914419093131,0.461753125761714,0.477828002874309
-1.09669475118604,55,18,-0.0927869295744393,-0.105155004140411,-0.0966681384809528
1.09941873670426,14,1,0.0855507411466391,-0.130310054331903,-0.0962002947027309
-1.42682945851595,24,2,-0.192549381670437,-0.627061200832255,-0.507087863650291
-0.658907421900717,38,10,-0.276112735178832,0.0534316890196584,-0.277042224884864
0.403265114725966,3,0,0.585924360160541,0.461753125761714,0.51309882688336
-0.0775832633415188,32,16,-0.274368103889179,-0.162664981122317,-0.158275034981774
0.0874840903234387,43,12,-0.24491504362409,-0.140210724787654,-0.231915904063671
0.683161931810024,11,0,0.207874051700769,0.461753125761714,0.444722077353228
0.281258809843171,54,20,-0.106722791447508,-0.104240527430944,-0.0795470865105183
-0.658907421900717,33,20,-0.277711639595145,-0.104240527430944,-0.110473292310667
-0.357480080425577,6,0,0.438993846271059,0.461753125761714,0.486523975013814
0.905644017184532,32,14,-0.274368103889179,-0.229354565686279,-0.19775909534515
1.5228523830622,47,17,-0.201397578637716,-0.125508189234531,-0.126132223399021
0.223844078133621,51,16,-0.148438445597866,-0.162664981122317,-0.135498540661531
0.998942956212551,26,19,-0.223467276878075,-0.100338648969205,-0.110482825037568
1.32190082207877,5,0,0.487624821163561,0.461753125761714,0.495319703823501
1.8673407733195,19,18,-0.079664450284841,-0.105155004140411,-0.0942947176437769
0.0946609317871324,42,18,-0.253446409873935,-0.105155004140411,-0.125726104572386
0.525271419608761,7,0,0.390914419093131,0.461753125761714,0.477828002874309
0.288435651306865,12,1,0.16539504136478,-0.130310054331903,-0.0817591116240365
0.611393517173086,9,0,0.297147242992434,0.461753125761714,0.46086863378794
-0.465132702380984,15,13,0.048431471802272,-0.210842073371697,-0.159117167315487
0.754930346446962,33,24,-0.277711639595145,-0.2411128017839,-0.2253121206074
-1.15410948289559,34,21,-0.279794004213737,-0.11362956791585,-0.118171347360671
3.93427111486332,6,0,0.438993846271059,0.461753125761714,0.486523975013814
0.697515614737412,13,1,0.124575185152253,-0.130310054331903,-0.0891420683936564
0.0444230415412758,30,23,-0.263634317258273,-0.173618348385246,-0.186926759954209
-0.0273453730956622,3,0,0.585924360160541,0.461753125761714,0.51309882688336
0.876936651329757,34,17,-0.279794004213737,-0.125508189234531,-0.140311534024394
-0.185235885296926,20,18,-0.106434666474883,-0.105155004140411,-0.099136560981378
1.46543765135265,30,20,-0.263634317258273,-0.104240527430944,-0.107927172067029
0.266905126915784,42,30,-0.253446409873935,-0.502531521821777,-0.435957763306767
1.51567554159851,9,0,0.297147242992434,0.461753125761714,0.46086863378794
0.16642934642407,28,2,-0.246925762924961,-0.627061200832255,-0.516922745723377
-0.070406421877825,48,10,-0.188734721416918,0.0534316890196584,-0.261238443145391
0.654454565955249,54,14,-0.106722791447508,-0.229354565686279,-0.167437624148825
-1.69237259267262,51,19,-0.148438445597866,-0.100338648969205,-0.0969126004161766
0.661631407418943,10,0,0.251851589206192,0.461753125761714,0.452676153833714
1.51567554159851,56,24,-0.0788755928747173,-0.2411128017839,-0.189349281112426
-0.321595873107108,9,0,0.297147242992434,0.461753125761714,0.46086863378794
1.16401030987751,2,0,0.635352062515572,0.461753125761714,0.522038657239667
0.0157156756865006,58,18,-0.0511257138749529,-0.105155004140411,-0.0891330077132769
0.503740895217679,7,0,0.390914419093131,0.461753125761714,0.477828002874309
0.31714301716164,16,1,0.0133008822100564,-0.130310054331903,-0.109267895489042
-0.773736885319818,25,19,-0.208978694360131,-0.100338648969205,-0.107862321481011
-0.0991137877326002,51,18,-0.148438445597866,-0.105155004140411,-0.106733650099259
-0.752206360928736,38,24,-0.276112735178832,-0.2411128017839,-0.225022931882116
0.238197761061008,17,1,-0.0197816182806654,-0.130310054331903,-0.115251421488797
-0.127821153587375,3,0,0.585924360160541,0.461753125761714,0.51309882688336
-0.493840068235759,34,15,-0.279794004213737,-0.205099904858235,-0.178998564658678
0.46785668789921,5,0,0.487624821163561,0.461753125761714,0.495319703823501
1.60179763916283,7,0,0.390914419093131,0.461753125761714,0.477828002874309
0.970235590357776,12,1,0.16539504136478,-0.130310054331903,-0.0817591116240365
2.05393865137554,50,18,-0.162141664679371,-0.105155004140411,-0.109212107484229
-0.45795586091729,23,17,-0.174120079532092,-0.125508189234531,-0.121198629423784
0.948705065966695,47,19,-0.201397578637716,-0.100338648969205,-0.106491149339869
0.61857035863678,58,24,-0.0511257138749529,-0.2411128017839,-0.184330249297351
0.876936651329757,57,31,-0.0649907898343415,-0.439654785513136,-0.437711931722603
0.475033529362904,45,26,-0.224827342540188,-0.427503933363213,-0.287425294903066
-0.00581484870458077,21,21,-0.131090668386641,-0.11362956791585,-0.091275850860299
-0.465132702380984,17,15,-0.0197816182806654,-0.205099904858235,-0.131970956454599
-1.18999369021406,30,23,-0.263634317258273,-0.173618348385246,-0.186926759954209
-0.544077958481616,55,19,-0.0927869295744393,-0.100338648969205,-0.0868470887978707
0.374557748871191,6,0,0.438993846271059,0.461753125761714,0.486523975013814
2.31230494406852,2,0,0.635352062515572,0.461753125761714,0.522038657239667
-1.35506104387902,37,18,-0.278813606409733,-0.105155004140411,-0.130314188234786
-0.91009687313,43,24,-0.24491504362409,-0.2411128017839,-0.219380305243223
0.360204065943803,0,0,0.734380881970719,0.461753125761714,0.539949682922297
-1.33353051948793,48,12,-0.188734721416918,-0.140210724787654,-0.22175474896309
0.740576663519575,48,12,-0.188734721416918,-0.140210724787654,-0.22175474896309
0.123368297641908,4,0,0.536646628619216,0.461753125761714,0.504186121268222
0.388911431798578,34,23,-0.279794004213737,-0.173618348385246,-0.189849510822845
1.11377241963165,6,0,0.438993846271059,0.461753125761714,0.486523975013814
0.640100883027861,11,0,0.207874051700769,0.461753125761714,0.444722077353228
0.144898822032989,25,15,-0.208978694360131,-0.205099904858235,-0.166190426174448
0.790814553765431,45,19,-0.224827342540188,-0.100338648969205,-0.110728815761664
0.41044195618966,30,18,-0.263634317258273,-0.105155004140411,-0.127568758779687
-0.594315848727472,59,18,-0.037270023825971,-0.105155004140411,-0.0866269733923257
-0.515370592626841,16,1,0.0133008822100564,-0.130310054331903,-0.109267895489042
-0.902920031666306,46,21,-0.213471020744429,-0.11362956791585,-0.106175721574125
-0.178059043833232,35,8,-0.280658057221124,-0.0373638235250044,-0.31740924239576
0.31714301716164,56,20,-0.0788755928747173,-0.104240527430944,-0.0745104528156931
0.632924041564168,6,0,0.438993846271059,0.461753125761714,0.486523975013814
-0.278534824324945,20,16,-0.106434666474883,-0.162664981122317,-0.12790145154365
-1.49859787315289,39,19,-0.272220680616781,-0.100338648969205,-0.119300697160896
-1.29046947070577,32,16,-0.274368103889179,-0.162664981122317,-0.158275034981774
-1.84308626341019,34,17,-0.279794004213737,-0.125508189234531,-0.140311534024394
0.0157156756865006,2,0,0.635352062515572,0.461753125761714,0.522038657239667
0.295612492770559,55,17,-0.0927869295744393,-0.125508189234531,-0.106488162857023
0.482210370826598,7,0,0.390914419093131,0.461753125761714,0.477828002874309
-0.0201685316319684,24,18,-0.192549381670437,-0.105155004140411,-0.114711853951709
1.49414501720742,9,0,0.297147242992434,0.461753125761714,0.46086863378794
0.546801943999842,57,14,-0.0649907898343415,-0.229354565686279,-0.159889690559457
-0.106290629196294,44,19,-0.235344997895045,-0.100338648969205,-0.1126311104292
-0.350303238961883,38,9,-0.276112735178832,0.0684351827411644,-0.296784511393305
-0.393364287744046,6,0,0.438993846271059,0.461753125761714,0.486523975013814
-0.178059043833232,17,1,-0.0197816182806654,-0.130310054331903,-0.115251421488797
-0.0416990560230498,49,21,-0.17560946988676,-0.11362956791585,-0.0993278240274607
0.231020919597315,29,20,-0.256074931519444,-0.104240527430944,-0.106559930158481
1.62332816355391,16,1,0.0133008822100564,-0.130310054331903,-0.109267895489042
0.130545139105601,33,15,-0.277711639595145,-0.205099904858235,-0.17862193403368
-0.479486385308372,21,12,-0.131090668386641,-0.140210724787654,-0.211328853552474
-1.21152421460514,33,16,-0.277711639595145,-0.162664981122317,-0.158879769585598
-1.0249263365491,25,19,-0.208978694360131,-0.100338648969205,-0.107862321481011
0.654454565955249,11,8,0.207874051700769,-0.0373638235250044,-0.229050003157805
0.10901461471452,2,0,0.635352062515572,0.461753125761714,0.522038657239667
-2.01533045853885,46,20,-0.213471020744429,-0.104240527430944,-0.0988542971491187
-0.321595873107108,51,19,-0.148438445597866,-0.100338648969205,-0.0969126004161766
-0.515370592626841,11,0,0.207874051700769,0.461753125761714,0.444722077353228
-1.52730523900767,36,20,-0.280328262920724,-0.104240527430944,-0.11094655259837
0.568332468390923,13,1,0.124575185152253,-0.130310054331903,-0.0891420683936564
0.776460870838044,0,0,0.734380881970719,0.461753125761714,0.539949682922297
-1.79284837316434,39,18,-0.272220680616781,-0.105155004140411,-0.129121746843978
-1.99379993414776,27,18,-0.236087954006469,-0.105155004140411,-0.122586536206696
-0.55125479994531,31,17,-0.26970176520386,-0.125508189234531,-0.138486183049843
-1.69237259267262,23,19,-0.174120079532092,-0.100338648969205,-0.101557555364631
0.295612492770559,12,1,0.16539504136478,-0.130310054331903,-0.0817591116240365
0.604216675709392,15,1,0.048431471802272,-0.130310054331903,-0.102913938167385
-0.106290629196294,19,1,-0.079664450284841,-0.130310054331903,-0.12608223768833
-1.64931154389046,5,0,0.487624821163561,0.461753125761714,0.495319703823501
1.10659557816796,25,17,-0.208978694360131,-0.125508189234531,-0.127503395540164
-0.0201685316319684,26,18,-0.223467276878075,-0.105155004140411,-0.12030387472065
-2.42441042196939,25,2,-0.208978694360131,-0.627061200832255,-0.510059380862675
-0.522547434090535,38,17,-0.276112735178832,-0.125508189234531,-0.139645714674112
3.05869645629267,26,21,-0.223467276878075,-0.11362956791585,-0.107983712432998
-0.0775832633415188,8,0,0.343567575067933,0.461753125761714,0.469264530705372
0.733399822055881,10,0,0.251851589206192,0.461753125761714,0.452676153833714
-0.709145312146573,31,18,-0.26970176520386,-0.105155004140411,-0.128666158673772
-0.034522214559356,38,19,-0.276112735178832,-0.100338648969205,-0.120004640614959
0.144898822032989,14,1,0.0855507411466391,-0.130310054331903,-0.0962002947027309
0.345850383016416,22,20,-0.153644985317601,-0.104240527430944,-0.0880337535647817
-0.60866953165486,28,15,-0.246925762924961,-0.205099904858235,-0.173053791035149
-0.357480080425577,55,18,-0.0927869295744393,-0.105155004140411,-0.0966681384809528
1.4080229196431,53,18,-0.120667887284956,-0.105155004140411,-0.101710878082989
-0.120644312123682,11,0,0.207874051700769,0.461753125761714,0.444722077353228
-2.66842303173498,20,14,-0.106434666474883,-0.229354565686279,-0.167385511907026
-0.450779019453596,37,16,-0.278813606409733,-0.162664981122317,-0.159079078797059
-0.694791629219186,35,18,-0.280658057221124,-0.105155004140411,-0.1306477881508
-2.15169044634903,18,12,-0.0507773274942666,-0.140210724787654,-0.196802836587961
0.0157156756865006,35,24,-0.280658057221124,-0.2411128017839,-0.225845029734875
-1.87897047072866,59,18,-0.037270023825971,-0.105155004140411,-0.0866269733923257
0.266905126915784,12,1,0.16539504136478,-0.130310054331903,-0.0817591116240365
0.948705065966695,54,21,-0.106722791447508,-0.11362956791585,-0.0868685109355243
1.07788821231318,58,23,-0.0511257138749529,-0.173618348385246,-0.148491008887798
1.73815762697301,1,0,0.684853509266806,0.461753125761714,0.530991825508933
-1.08234106825865,27,24,-0.236087954006469,-0.2411128017839,-0.21778377779077
0.597039834245699,26,16,-0.223467276878075,-0.162664981122317,-0.149068765282922
-0.895743190202612,5,0,0.487624821163561,0.461753125761714,0.495319703823501
-0.450779019453596,18,1,-0.0507773274942666,-0.130310054331903,-0.120857516227992
-0.149351677978457,41,32,-0.260869307542797,-0.383437942777834,-0.508978824286039
-0.780913726783511,53,15,-0.120667887284956,-0.205099904858235,-0.150217933093344
1.03482716353102,3,0,0.585924360160541,0.461753125761714,0.51309882688336
1.25730924890553,10,0,0.251851589206192,0.461753125761714,0.452676153833714
-0.178059043833232,24,14,-0.192549381670437,-0.229354565686279,-0.182960804877357
0.238197761061008,3,0,0.585924360160541,0.461753125761714,0.51309882688336
0.876936651329757,58,22,-0.0511257138749529,-0.133406047502607,-0.112651963774819
0.783637712301737,3,0,0.585924360160541,0.461753125761714,0.51309882688336
0.374557748871191,46,15,-0.213471020744429,-0.205099904858235,-0.167002938872132
-1.08951790972234,28,2,-0.246925762924961,-0.627061200832255,-0.516922745723377
-0.96751160483955,28,18,-0.246925762924961,-0.105155004140411,-0.124546736024795
-0.0775832633415188,6,0,0.438993846271059,0.461753125761714,0.486523975013814
0.144898822032989,8,0,0.343567575067933,0.461753125761714,0.469264530705372
-0.407717970671434,10,0,0.251851589206192,0.461753125761714,0.452676153833714
0.482210370826598,19,1,-0.079664450284841,-0.130310054331903,-0.12608223768833
-0.601492690191166,43,30,-0.24491504362409,-0.502531521821777,-0.434414722393529
-0.773736885319818,37,25,-0.278813606409733,-0.331547161079774,-0.261350401695625
-0.615846373118554,50,21,-0.162141664679371,-0.11362956791585,-0.096891945196577
-0.0416990560230498,13,1,0.124575185152253,-0.130310054331903,-0.0891420683936564
-0.673261104828104,44,21,-0.235344997895045,-0.11362956791585,-0.11013199782463
-0.536901117017922,38,18,-0.276112735178832,-0.105155004140411,-0.129825690298041
0.496564053753985,56,26,-0.0788755928747173,-0.427503933363213,-0.261027468986672
0.862582968402369,4,0,0.536646628619216,0.461753125761714,0.504186121268222
-0.680437946291798,43,26,-0.24491504362409,-0.427503933363213,-0.291058493117468
0.288435651306865,10,0,0.251851589206192,0.461753125761714,0.452676153833714
0.0300693586138882,24,19,-0.192549381670437,-0.100338648969205,-0.104890804268627
-0.558431641409003,21,21,-0.131090668386641,-0.11362956791585,-0.091275850860299
-0.60866953165486,50,21,-0.162141664679371,-0.11362956791585,-0.096891945196577
1.30037029768769,7,0,0.390914419093131,0.461753125761714,0.477828002874309
1.1783639928049,33,20,-0.277711639595145,-0.104240527430944,-0.110473292310667
0.812345078156513,40,7,-0.267136278560998,-0.268260229039441,-0.349232681928762
0.0659535659323573,12,1,0.16539504136478,-0.130310054331903,-0.0817591116240365
-0.350303238961883,31,29,-0.26970176520386,-0.544039796170222,-0.403059040827963
-0.981865287766938,7,0,0.390914419093131,0.461753125761714,0.477828002874309
-1.03928001947649,6,0,0.438993846271059,0.461753125761714,0.486523975013814
0.640100883027861,10,0,0.251851589206192,0.461753125761714,0.452676153833714
-0.00581484870458077,53,12,-0.120667887284956,-0.140210724787654,-0.209443718487512
-0.113467470659988,34,20,-0.279794004213737,-0.104240527430944,-0.110849922935665
0.884113492793451,38,14,-0.276112735178832,-0.229354565686279,-0.19807464122369
0.130545139105601,49,18,-0.17560946988676,-0.105155004140411,-0.111647986315113
0.431972480580741,3,0,0.585924360160541,0.461753125761714,0.51309882688336
-0.350303238961883,17,1,-0.0197816182806654,-0.130310054331903,-0.115251421488797
-0.701968470682879,40,32,-0.267136278560998,-0.383437942777834,-0.510112311279794
0.152075663496683,15,1,0.048431471802272,-0.130310054331903,-0.102913938167385
-0.917273714593694,29,19,-0.256074931519444,-0.100338648969205,-0.116380467188057
-1.16128632435928,42,19,-0.253446409873935,-0.100338648969205,-0.115905054889304
0.525271419608761,25,24,-0.208978694360131,-0.2411128017839,-0.212880612748168
-1.24740842192361,8,0,0.343567575067933,0.461753125761714,0.469264530705372
-1.0249263365491,52,36,-0.134590152255301,-0.452352219323239,-0.629495590959265
-0.264181141397558,3,0,0.585924360160541,0.461753125761714,0.51309882688336
-0.558431641409003,46,24,-0.213471020744429,-0.2411128017839,-0.213693125445852
1.1783639928049,40,17,-0.267136278560998,-0.125508189234531,-0.138022171690305
-0.529724275554228,30,32,-0.263634317258273,-0.383437942777834,-0.509478922745246
-2.8765514341821,29,29,-0.256074931519444,-0.544039796170222,-0.40059439902533
-1.96509256829299,30,2,-0.263634317258273,-0.627061200832255,-0.519944768478269
-0.0560527389504374,5,0,0.487624821163561,0.461753125761714,0.495319703823501
-0.228296934079089,51,24,-0.148438445597866,-0.2411128017839,-0.201930891683333
0.0444230415412758,17,17,-0.0197816182806654,-0.125508189234531,-0.0932839258203146
0.0803072488597449,30,20,-0.263634317258273,-0.104240527430944,-0.107927172067029
0.417618797653354,50,18,-0.162141664679371,-0.105155004140411,-0.109212107484229
-1.30482315363316,13,1,0.124575185152253,-0.130310054331903,-0.0891420683936564
-0.328772714570802,46,16,-0.213471020744429,-0.162664981122317,-0.147260774424049
0.575509309854617,54,18,-0.106722791447508,-0.105155004140411,-0.0991886732231767
0.948705065966695,1,0,0.684853509266806,0.461753125761714,0.530991825508933
0.719046139128493,21,1,-0.131090668386641,-0.130310054331903,-0.135383533192505
-0.673261104828104,12,1,0.16539504136478,-0.130310054331903,-0.0817591116240365
-0.493840068235759,42,12,-0.253446409873935,-0.140210724787654,-0.233458944976908
-0.343126397498189,59,18,-0.037270023825971,-0.105155004140411,-0.0866269733923257
0.482210370826598,33,9,-0.277711639595145,0.0684351827411644,-0.29707370011859
0.216667236669927,8,0,0.343567575067933,0.461753125761714,0.469264530705372
0.130545139105601,7,0,0.390914419093131,0.461753125761714,0.477828002874309
0.76928402937435,43,14,-0.24491504362409,-0.229354565686279,-0.192432014584796
0.123368297641908,2,0,0.635352062515572,0.461753125761714,0.522038657239667
4.83855313928874,17,18,-0.0197816182806654,-0.105155004140411,-0.0834639014442441
-0.486663226772065,49,16,-0.17560946988676,-0.162664981122317,-0.140412876877385
0.0228925171501944,5,0,0.487624821163561,0.461753125761714,0.495319703823501
0.582686151318311,13,1,0.124575185152253,-0.130310054331903,-0.0891420683936564
-1.50577471461659,24,2,-0.192549381670437,-0.627061200832255,-0.507087863650291
-1.9507388853656,45,20,-0.224827342540188,-0.104240527430944,-0.100908278732088
0.503740895217679,28,20,-0.246925762924961,-0.104240527430944,-0.104905149312137
-0.300065348716027,25,2,-0.208978694360131,-0.627061200832255,-0.510059380862675
-1.29046947070577,14,1,0.0855507411466391,-0.130310054331903,-0.0962002947027309
-0.0632295804141312,11,0,0.207874051700769,0.461753125761714,0.444722077353228
-0.486663226772065,37,20,-0.278813606409733,-0.104240527430944,-0.110672601522128
-0.170882202369538,36,19,-0.280328262920724,-0.100338648969205,-0.120767089627946
1.09941873670426,6,0,0.438993846271059,0.461753125761714,0.486523975013814
0.833875602547594,3,0,0.585924360160541,0.461753125761714,0.51309882688336
-1.1469326414319,46,18,-0.213471020744429,-0.105155004140411,-0.118495883861777
-0.163705360905844,40,13,-0.267136278560998,-0.210842073371697,-0.21619289650689
-2.46029462928786,24,23,-0.192549381670437,-0.173618348385246,-0.174069855126231
-0.0991137877326002,1,0,0.684853509266806,0.461753125761714,0.530991825508933
0.195136712278846,44,16,-0.235344997895045,-0.162664981122317,-0.151217050674554
-1.67801890974524,35,7,-0.280658057221124,-0.268260229039441,-0.351678322765327
0.518094578145067,11,0,0.207874051700769,0.461753125761714,0.444722077353228
0.216667236669927,32,12,-0.274368103889179,-0.140210724787654,-0.237242984824024
-0.235473775542782,24,18,-0.192549381670437,-0.105155004140411,-0.114711853951709
-0.795267409710899,20,18,-0.106434666474883,-0.105155004140411,-0.099136560981378
0.353027224480109,40,18,-0.267136278560998,-0.105155004140411,-0.128202147314235
-0.75938320239243,27,14,-0.236087954006469,-0.229354565686279,-0.190835487132344
0.589862992782005,47,18,-0.201397578637716,-0.105155004140411,-0.116312199022951
-0.364656921889271,6,0,0.438993846271059,0.461753125761714,0.486523975013814
1.01329663913994,41,16,-0.260869307542797,-0.162664981122317,-0.155833550882752
0.704692456201106,8,0,0.343567575067933,0.461753125761714,0.469264530705372
-2.24498938537705,56,14,-0.0788755928747173,-0.229354565686279,-0.162400990454
1.19989451719598,1,0,0.684853509266806,0.461753125761714,0.530991825508933
3.20941012703024,8,0,0.343567575067933,0.461753125761714,0.469264530705372
-0.630200056045942,18,1,-0.0507773274942666,-0.130310054331903,-0.120857516227992
0.697515614737412,12,1,0.16539504136478,-0.130310054331903,-0.0817591116240365
-1.64931154389046,44,17,-0.235344997895045,-0.125508189234531,-0.132272184488353
-1.24740842192361,45,18,-0.224827342540188,-0.105155004140411,-0.120549865444746
-1.12540211704081,44,18,-0.235344997895045,-0.105155004140411,-0.122452160112282
1.16401030987751,3,0,0.585924360160541,0.461753125761714,0.51309882688336
-1.30482315363316,35,18,-0.280658057221124,-0.105155004140411,-0.1306477881508
-0.328772714570802,31,22,-0.26970176520386,-0.133406047502607,-0.152185114735314
-0.802444251174593,13,1,0.124575185152253,-0.130310054331903,-0.0891420683936564
-0.0129916901682746,25,17,-0.208978694360131,-0.125508189234531,-0.127503395540164
-0.278534824324945,28,18,-0.246925762924961,-0.105155004140411,-0.124546736024795
-1.31199999509685,53,21,-0.120667887284956,-0.11362956791585,-0.0893907157953368
-2.73301460490823,38,18,-0.276112735178832,-0.105155004140411,-0.129825690298041
-1.05363370240388,43,21,-0.24491504362409,-0.11362956791585,-0.111862901371496
-1.18281684875036,21,1,-0.131090668386641,-0.130310054331903,-0.135383533192505
0.25972828545209,29,24,-0.256074931519444,-0.2411128017839,-0.221398758455214
-2.42441042196939,15,1,0.048431471802272,-0.130310054331903,-0.102913938167385
-0.809621092638287,51,18,-0.148438445597866,-0.105155004140411,-0.106733650099259
-0.00581484870458077,10,0,0.251851589206192,0.461753125761714,0.452676153833714
-0.142174836514763,33,18,-0.277711639595145,-0.105155004140411,-0.130114879023326
-0.328772714570802,20,1,-0.106434666474883,-0.130310054331903,-0.130924081025931
0.245374602524702,44,18,-0.235344997895045,-0.105155004140411,-0.122452160112282
-1.05363370240388,17,1,-0.0197816182806654,-0.130310054331903,-0.115251421488797
1.73815762697301,37,19,-0.278813606409733,-0.100338648969205,-0.120493138551704
0.8266987610839,8,0,0.343567575067933,0.461753125761714,0.469264530705372
-0.881389507275225,46,19,-0.213471020744429,-0.100338648969205,-0.108674834178695
0.869759809866063,10,0,0.251851589206192,0.461753125761714,0.452676153833714
-1.49859787315289,54,18,-0.106722791447508,-0.105155004140411,-0.0991886732231767
-0.615846373118554,8,0,0.343567575067933,0.461753125761714,0.469264530705372
-0.745029519465042,12,1,0.16539504136478,-0.130310054331903,-0.0817591116240365
-0.874212665811531,39,15,-0.272220680616781,-0.205099904858235,-0.177628801854332
-0.874212665811531,7,0,0.390914419093131,0.461753125761714,0.477828002874309
-2.33111148294137,29,18,-0.256074931519444,-0.105155004140411,-0.12620151687114
-1.15410948289559,26,2,-0.223467276878075,-0.627061200832255,-0.512679884419232
-0.565608482872697,51,24,-0.148438445597866,-0.2411128017839,-0.201930891683333
-1.19717053167775,21,20,-0.131090668386641,-0.104240527430944,-0.0839544264352931
-0.737852678001349,3,0,0.585924360160541,0.461753125761714,0.51309882688336
0.0587767244686634,8,0,0.343567575067933,0.461753125761714,0.469264530705372
-0.0201685316319684,10,0,0.251851589206192,0.461753125761714,0.452676153833714
0.841052444011288,54,17,-0.106722791447508,-0.125508189234531,-0.109008697599247
-0.156528519442151,22,1,-0.153644985317601,-0.130310054331903,-0.139462860321993
-0.264181141397558,56,24,-0.0788755928747173,-0.2411128017839,-0.189349281112426
0.76928402937435,6,0,0.438993846271059,0.461753125761714,0.486523975013814
-1.30482315363316,55,18,-0.0927869295744393,-0.105155004140411,-0.0966681384809528
0.152075663496683,20,1,-0.106434666474883,-0.130310054331903,-0.130924081025931
0.288435651306865,6,0,0.438993846271059,0.461753125761714,0.486523975013814
-1.45553682437073,44,15,-0.235344997895045,-0.205099904858235,-0.170959215122637
0.245374602524702,5,0,0.487624821163561,0.461753125761714,0.495319703823501
-1.69954943413632,14,1,0.0855507411466391,-0.130310054331903,-0.0962002947027309
-0.328772714570802,13,1,0.124575185152253,-0.130310054331903,-0.0891420683936564
-1.55601260486244,49,25,-0.17560946988676,-0.331547161079774,-0.242684199775952
2.54914071237041,6,0,0.438993846271059,0.461753125761714,0.486523975013814
-1.38376840973379,44,16,-0.235344997895045,-0.162664981122317,-0.151217050674554
-0.630200056045942,47,15,-0.201397578637716,-0.205099904858235,-0.164819254033305
0.345850383016416,59,14,-0.037270023825971,-0.229354565686279,-0.154875924317974
-1.08234106825865,25,24,-0.208978694360131,-0.2411128017839,-0.212880612748168
-1.12540211704081,56,24,-0.0788755928747173,-0.2411128017839,-0.189349281112426
0.510917736681373,42,19,-0.253446409873935,-0.100338648969205,-0.115905054889304
0.25972828545209,5,0,0.487624821163561,0.461753125761714,0.495319703823501
-0.895743190202612,15,1,0.048431471802272,-0.130310054331903,-0.102913938167385
0.0803072488597449,47,20,-0.201397578637716,-0.104240527430944,-0.0966706123102923
0.776460870838044,20,12,-0.106434666474883,-0.140210724787654,-0.2068694013859
-0.888566348738918,45,20,-0.224827342540188,-0.104240527430944,-0.100908278732088
-2.65406934880759,20,15,-0.106434666474883,-0.205099904858235,-0.147643615991733
-0.558431641409003,44,24,-0.235344997895045,-0.2411128017839,-0.217649401696357
-0.30724219017972,26,23,-0.223467276878075,-0.173618348385246,-0.179661875895171
0.31714301716164,19,1,-0.079664450284841,-0.130310054331903,-0.12608223768833
-0.371833763352965,57,24,-0.0649907898343415,-0.2411128017839,-0.186837981217883
0.209490395206233,8,0,0.343567575067933,0.461753125761714,0.469264530705372
0.0515998830049696,47,16,-0.201397578637716,-0.162664981122317,-0.145077089585223
-0.565608482872697,49,14,-0.17560946988676,-0.229354565686279,-0.179896937240761
-0.414894812135127,29,18,-0.256074931519444,-0.105155004140411,-0.12620151687114
0.388911431798578,28,18,-0.246925762924961,-0.105155004140411,-0.124546736024795
-0.300065348716027,15,1,0.048431471802272,-0.130310054331903,-0.102913938167385
0.101837773250826,25,14,-0.208978694360131,-0.229354565686279,-0.185932322089742
0.238197761061008,52,18,-0.134590152255301,-0.105155004140411,-0.104228953596928
0.152075663496683,6,0,0.438993846271059,0.461753125761714,0.486523975013814
-0.723498995073961,41,18,-0.260869307542797,-0.105155004140411,-0.12706866032048
-0.350303238961883,50,24,-0.162141664679371,-0.2411128017839,-0.204409349068304
3.46059957825953,9,0,0.297147242992434,0.461753125761714,0.46086863378794
-1.87179362926497,47,24,-0.201397578637716,-0.2411128017839,-0.211509440607025
0.0803072488597449,48,12,-0.188734721416918,-0.140210724787654,-0.22175474896309
0.539625102536148,53,18,-0.120667887284956,-0.105155004140411,-0.101710878082989
0.0874840903234387,7,0,0.390914419093131,0.461753125761714,0.477828002874309
-0.19241272676062,13,1,0.124575185152253,-0.130310054331903,-0.0891420683936564
-0.40054112920774,46,17,-0.213471020744429,-0.125508189234531,-0.128315908237848
0.116191456178214,35,19,-0.280658057221124,-0.100338648969205,-0.120826738467718
-0.701968470682879,43,19,-0.24491504362409,-0.100338648969205,-0.114362013976066
0.209490395206233,11,0,0.207874051700769,0.461753125761714,0.444722077353228
1.27166293183292,12,1,0.16539504136478,-0.130310054331903,-0.0817591116240365
-2.56077040977957,15,1,0.048431471802272,-0.130310054331903,-0.102913938167385
-1.08951790972234,24,2,-0.192549381670437,-0.627061200832255,-0.507087863650291
-1.67084206828154,57,15,-0.0649907898343415,-0.205099904858235,-0.140147794644163
0.690338773273718,2,0,0.635352062515572,0.461753125761714,0.522038657239667
0.525271419608761,25,12,-0.208978694360131,-0.140210724787654,-0.225416211568616
-0.601492690191166,53,29,-0.120667887284956,-0.544039796170222,-0.37610376023718
-2.02968414146623,15,1,0.048431471802272,-0.130310054331903,-0.102913938167385
0.582686151318311,7,0,0.390914419093131,0.461753125761714,0.477828002874309
0.324319858625334,9,0,0.297147242992434,0.461753125761714,0.46086863378794
-1.5990736536446,7,0,0.390914419093131,0.461753125761714,0.477828002874309
0.869759809866063,31,14,-0.26970176520386,-0.229354565686279,-0.19691510959942
-2.33828832440507,9,0,0.297147242992434,0.461753125761714,0.46086863378794
0.309966175697946,3,0,0.585924360160541,0.461753125761714,0.51309882688336
0.0444230415412758,57,18,-0.0649907898343415,-0.105155004140411,-0.0916407396338085
-0.888566348738918,50,19,-0.162141664679371,-0.100338648969205,-0.0993910578011473
1.44390712696157,19,12,-0.079664450284841,-0.140210724787654,-0.202027558048299
1.37213871232463,19,12,-0.079664450284841,-0.140210724787654,-0.202027558048299
0.510917736681373,55,19,-0.0927869295744393,-0.100338648969205,-0.0868470887978707
0.711869297664799,5,0,0.487624821163561,0.461753125761714,0.495319703823501
-0.343126397498189,21,18,-0.131090668386641,-0.105155004140411,-0.103596013147952
0.76928402937435,0,0,0.734380881970719,0.461753125761714,0.539949682922297
-0.938804238984775,12,1,0.16539504136478,-0.130310054331903,-0.0817591116240365
-0.931627397521081,36,24,-0.280328262920724,-0.2411128017839,-0.225785380895103
0.116191456178214,9,0,0.297147242992434,0.461753125761714,0.46086863378794
-0.501016909699453,23,18,-0.174120079532092,-0.105155004140411,-0.111378605047714
-1.01057265362171,14,1,0.0855507411466391,-0.130310054331903,-0.0962002947027309
-1.11822527557712,50,14,-0.162141664679371,-0.229354565686279,-0.177461058409878
1.39366923671571,33,18,-0.277711639595145,-0.105155004140411,-0.130114879023326
-0.0273453730956622,32,20,-0.274368103889179,-0.104240527430944,-0.109868557706844
0.891290334257144,33,24,-0.277711639595145,-0.2411128017839,-0.2253121206074
-1.2545852633873,13,1,0.124575185152253,-0.130310054331903,-0.0891420683936564
0.137721980569295,22,1,-0.153644985317601,-0.130310054331903,-0.139462860321993
-0.996218970694325,45,12,-0.224827342540188,-0.140210724787654,-0.228282705849269
-0.0129916901682746,31,2,-0.26970176520386,-0.627061200832255,-0.521042168372354
0.309966175697946,57,18,-0.0649907898343415,-0.105155004140411,-0.0916407396338085
-0.924450556057387,28,24,-0.246925762924961,-0.2411128017839,-0.219743977608869
-0.163705360905844,46,18,-0.213471020744429,-0.105155004140411,-0.118495883861777
0.927174541575613,28,19,-0.246925762924961,-0.100338648969205,-0.114725686341713
-0.486663226772065,59,24,-0.037270023825971,-0.2411128017839,-0.1818242149764
0.295612492770559,8,0,0.343567575067933,0.461753125761714,0.469264530705372
-0.343126397498189,45,18,-0.224827342540188,-0.105155004140411,-0.120549865444746
-0.264181141397558,49,22,-0.17560946988676,-0.133406047502607,-0.135166942376655
0.116191456178214,7,0,0.390914419093131,0.461753125761714,0.477828002874309
0.776460870838044,35,20,-0.280658057221124,-0.104240527430944,-0.111006201438142
0.453503004971823,9,0,0.297147242992434,0.461753125761714,0.46086863378794
-0.407717970671434,53,18,-0.120667887284956,-0.105155004140411,-0.101710878082989
0.073130407396051,14,1,0.0855507411466391,-0.130310054331903,-0.0962002947027309
-0.895743190202612,7,0,0.390914419093131,0.461753125761714,0.477828002874309
-0.579962165800085,31,16,-0.26970176520386,-0.162664981122317,-0.157431049236044
-0.0273453730956622,3,0,0.585924360160541,0.461753125761714,0.51309882688336
0.647277724491555,30,19,-0.263634317258273,-0.100338648969205,-0.117747709096605
0.747753504983268,5,0,0.487624821163561,0.461753125761714,0.495319703823501
0.711869297664799,52,26,-0.134590152255301,-0.427503933363213,-0.271104383055248
-0.00581484870458077,29,15,-0.256074931519444,-0.205099904858235,-0.174708571881494
-0.156528519442151,29,19,-0.256074931519444,-0.100338648969205,-0.116380467188057
1.61615132209022,5,0,0.487624821163561,0.461753125761714,0.495319703823501
0.704692456201106,55,18,-0.0927869295744393,-0.105155004140411,-0.0966681384809528
-0.544077958481616,16,1,0.0133008822100564,-0.130310054331903,-0.109267895489042
-1.67801890974524,15,1,0.048431471802272,-0.130310054331903,-0.102913938167385
-0.414894812135127,26,4,-0.223467276878075,-1.00359006000235,-0.444141748092168
-0.565608482872697,49,6,-0.17560946988676,-0.573224745486477,-0.366947698947495
0.180783029351458,51,18,-0.148438445597866,-0.105155004140411,-0.106733650099259
-1.00339581215802,24,14,-0.192549381670437,-0.229354565686279,-0.182960804877357
0.324319858625334,54,24,-0.106722791447508,-0.2411128017839,-0.194385914807251
0.331496700089028,4,0,0.536646628619216,0.461753125761714,0.504186121268222
-0.264181141397558,27,22,-0.236087954006469,-0.133406047502607,-0.146105492268238
-0.859858982884143,21,1,-0.131090668386641,-0.130310054331903,-0.135383533192505
0.202313553742539,48,27,-0.188734721416918,-0.504956333595816,-0.316736358717796
-0.414894812135127,20,1,-0.106434666474883,-0.130310054331903,-0.130924081025931
0.431972480580741,20,1,-0.106434666474883,-0.130310054331903,-0.130924081025931
-0.070406421877825,12,1,0.16539504136478,-0.130310054331903,-0.0817591116240365
1.55873659038067,3,0,0.585924360160541,0.461753125761714,0.51309882688336
0.180783029351458,12,1,0.16539504136478,-0.130310054331903,-0.0817591116240365
1.07788821231318,5,0,0.487624821163561,0.461753125761714,0.495319703823501
0.711869297664799,26,21,-0.223467276878075,-0.11362956791585,-0.107983712432998
1.51567554159851,44,22,-0.235344997895045,-0.133406047502607,-0.145971116173824
0.137721980569295,37,24,-0.278813606409733,-0.2411128017839,-0.225511429818861
-0.45795586091729,35,24,-0.280658057221124,-0.2411128017839,-0.225845029734875
1.91040182210166,2,0,0.635352062515572,0.461753125761714,0.522038657239667
-2.25216622684074,39,24,-0.272220680616781,-0.2411128017839,-0.224318988428052
2.24053652943158,23,1,-0.174120079532092,-0.130310054331903,-0.143166125092267
-0.343126397498189,20,1,-0.106434666474883,-0.130310054331903,-0.130924081025931
0.10901461471452,55,16,-0.0927869295744393,-0.162664981122317,-0.125433029043225
-0.874212665811531,40,21,-0.267136278560998,-0.11362956791585,-0.115881985026582
-0.292888507252333,3,0,0.585924360160541,0.461753125761714,0.51309882688336
0.661631407418943,22,15,-0.153644985317601,-0.205099904858235,-0.156182395287795
-1.77849469023695,6,0,0.438993846271059,0.461753125761714,0.486523975013814
0.288435651306865,9,0,0.297147242992434,0.461753125761714,0.46086863378794
-0.285711665788639,37,14,-0.278813606409733,-0.229354565686279,-0.198563139160435
0.173606187887764,31,20,-0.26970176520386,-0.104240527430944,-0.109024571961114
0.647277724491555,44,14,-0.235344997895045,-0.229354565686279,-0.19070111103793
1.99652391966599,41,14,-0.260869307542797,-0.229354565686279,-0.195317611246128
1.58026711477175,5,0,0.487624821163561,0.461753125761714,0.495319703823501
-0.515370592626841,14,1,0.0855507411466391,-0.130310054331903,-0.0962002947027309
-0.709145312146573,40,18,-0.267136278560998,-0.105155004140411,-0.128202147314235
-1.45553682437073,41,14,-0.260869307542797,-0.229354565686279,-0.195317611246128
-0.0775832633415188,23,22,-0.174120079532092,-0.133406047502607,-0.134897561109256
0.697515614737412,33,19,-0.277711639595145,-0.100338648969205,-0.120293829340244
1.27166293183292,8,0,0.343567575067933,0.461753125761714,0.469264530705372
-0.127821153587375,26,21,-0.223467276878075,-0.11362956791585,-0.107983712432998
-0.472309543844678,11,0,0.207874051700769,0.461753125761714,0.444722077353228
-0.508193751163147,26,21,-0.223467276878075,-0.11362956791585,-0.107983712432998
-0.40054112920774,19,1,-0.079664450284841,-0.130310054331903,-0.12608223768833
0.396088273262272,4,0,0.536646628619216,0.461753125761714,0.504186121268222
0.209490395206233,1,0,0.684853509266806,0.461753125761714,0.530991825508933
-0.658907421900717,1,0,0.684853509266806,0.461753125761714,0.530991825508933
0.0659535659323573,28,15,-0.246925762924961,-0.205099904858235,-0.173053791035149
-1.38376840973379,53,18,-0.120667887284956,-0.105155004140411,-0.101710878082989
1.57309027330806,7,0,0.390914419093131,0.461753125761714,0.477828002874309
-0.00581484870458077,16,1,0.0133008822100564,-0.130310054331903,-0.109267895489042
0.991766114748858,8,0,0.343567575067933,0.461753125761714,0.469264530705372
0.288435651306865,29,18,-0.256074931519444,-0.105155004140411,-0.12620151687114
-0.701968470682879,24,17,-0.192549381670437,-0.125508189234531,-0.12453187832778
-0.199589568224313,28,16,-0.246925762924961,-0.162664981122317,-0.153311626587067
0.216667236669927,42,20,-0.253446409873935,-0.104240527430944,-0.106084517859727
-1.11822527557712,30,12,-0.263634317258273,-0.140210724787654,-0.23530159918421
-0.450779019453596,8,0,0.343567575067933,0.461753125761714,0.469264530705372
-0.170882202369538,52,19,-0.134590152255301,-0.100338648969205,-0.0944079039138456
-0.113467470659988,17,1,-0.0197816182806654,-0.130310054331903,-0.115251421488797
-0.185235885296926,26,25,-0.223467276878075,-0.331547161079774,-0.251340088181489
0.0946609317871324,28,18,-0.246925762924961,-0.105155004140411,-0.124546736024795
-1.16128632435928,26,17,-0.223467276878075,-0.125508189234531,-0.130123899096721
-0.96751160483955,22,20,-0.153644985317601,-0.104240527430944,-0.0880337535647817
0.453503004971823,9,0,0.297147242992434,0.461753125761714,0.46086863378794
-0.0991137877326002,39,15,-0.272220680616781,-0.205099904858235,-0.177628801854332
0.446326163508129,27,15,-0.236087954006469,-0.205099904858235,-0.17109359121705
1.25730924890553,16,1,0.0133008822100564,-0.130310054331903,-0.109267895489042
0.762107187910656,22,18,-0.153644985317601,-0.105155004140411,-0.10767534027744
-0.235473775542782,7,0,0.390914419093131,0.461753125761714,0.477828002874309
-0.493840068235759,44,26,-0.235344997895045,-0.427503933363213,-0.289327589570602
0.683161931810024,8,0,0.343567575067933,0.461753125761714,0.469264530705372
-0.0488758974867436,8,0,0.343567575067933,0.461753125761714,0.469264530705372
-0.0560527389504374,27,2,-0.236087954006469,-0.627061200832255,-0.514962545905277
-0.271357982861251,41,34,-0.260869307542797,-0.360176943913872,-0.580656768039568
0.453503004971823,33,20,-0.277711639595145,-0.104240527430944,-0.110473292310667
-0.314419031643414,31,12,-0.26970176520386,-0.140210724787654,-0.236398999078295
0.16642934642407,4,0,0.536646628619216,0.461753125761714,0.504186121268222
0.245374602524702,27,20,-0.236087954006469,-0.104240527430944,-0.102944949494037
0.431972480580741,19,1,-0.079664450284841,-0.130310054331903,-0.12608223768833
-0.070406421877825,8,0,0.343567575067933,0.461753125761714,0.469264530705372
1.16401030987751,29,18,-0.256074931519444,-0.105155004140411,-0.12620151687114
-0.773736885319818,33,2,-0.277711639595145,-0.627061200832255,-0.522490888721907
0.0228925171501944,40,36,-0.267136278560998,-0.452352219323239,-0.653468784676572
-0.178059043833232,57,12,-0.0649907898343415,-0.140210724787654,-0.199373580038331
0.833875602547594,51,24,-0.148438445597866,-0.2411128017839,-0.201930891683333
-0.257004299933864,21,17,-0.131090668386641,-0.125508189234531,-0.113416037524022
0.726222980592187,1,0,0.684853509266806,0.461753125761714,0.530991825508933
1.03482716353102,2,0,0.635352062515572,0.461753125761714,0.522038657239667
0.209490395206233,23,23,-0.174120079532092,-0.173618348385246,-0.170736606222235
-1.67084206828154,58,24,-0.0511257138749529,-0.2411128017839,-0.184330249297351
0.0300693586138882,16,1,0.0133008822100564,-0.130310054331903,-0.109267895489042
-0.917273714593694,54,29,-0.106722791447508,-0.544039796170222,-0.373581555377367
1.12094926109535,20,1,-0.106434666474883,-0.130310054331903,-0.130924081025931
0.783637712301737,21,1,-0.131090668386641,-0.130310054331903,-0.135383533192505
-0.142174836514763,11,0,0.207874051700769,0.461753125761714,0.444722077353228
-0.0991137877326002,9,0,0.297147242992434,0.461753125761714,0.46086863378794
0.510917736681373,13,1,0.124575185152253,-0.130310054331903,-0.0891420683936564
0.0157156756865006,3,0,0.585924360160541,0.461753125761714,0.51309882688336
0.963058748894082,28,13,-0.246925762924961,-0.210842073371697,-0.21253748521745
-0.206766409688007,56,25,-0.0788755928747173,-0.331547161079774,-0.22518825298919
1.70227341965454,36,21,-0.280328262920724,-0.11362956791585,-0.118267977023376
1.03482716353102,59,24,-0.037270023825971,-0.2411128017839,-0.1818242149764
-0.745029519465042,28,24,-0.246925762924961,-0.2411128017839,-0.219743977608869
1.56591343184436,41,18,-0.260869307542797,-0.105155004140411,-0.12706866032048
-1.8359094219465,37,3,-0.278813606409733,-0.934594964823697,-0.4884211175638
-0.874212665811531,53,24,-0.120667887284956,-0.2411128017839,-0.196908119667064
-0.00581484870458077,7,0,0.390914419093131,0.461753125761714,0.477828002874309
0.654454565955249,19,1,-0.079664450284841,-0.130310054331903,-0.12608223768833
-2.24498938537705,23,1,-0.174120079532092,-0.130310054331903,-0.143166125092267
1.293193456224,47,25,-0.201397578637716,-0.331547161079774,-0.247348412483789
0.209490395206233,45,18,-0.224827342540188,-0.105155004140411,-0.120549865444746
0.898467175720838,13,1,0.124575185152253,-0.130310054331903,-0.0891420683936564
-0.242650617006476,50,24,-0.162141664679371,-0.2411128017839,-0.204409349068304
0.704692456201106,2,0,0.635352062515572,0.461753125761714,0.522038657239667
