1.0,2.0,3.0,4.0,5.0,6.0,7.0,8.0,9.0
61.0,81.0,101.0,121.0,141.0,161.0,181.0,201.0,221.0
0.8225440979003906,1.6093254089355469,9.846687316894531,8.606910705566406,1.7642974853515625,-92.07725524902344,-11.968612670898438,17.9290771484375,47.30224609375
3.6478042602539062,5.590915679931641,-2.6345252990722656,-0.095367431640625,8.392333984375,92.98324584960938,13.92364501953125,5.8650970458984375,-19.884109497070312
2.2351741790771484,3.6001205444335938,3.606081008911133,4.255771636962891,5.078315734863281,0.45299530029296875,0.9775161743164062,11.897087097167969,13.709068298339844
