1.0,2.0,3.0,4.0,5.0,6.0,7.0,8.0,9.0
31.0,41.0,51.0,61.0,71.0,81.0,91.0,101.0,111.0
1.9894838333129883,3.9440393447875977,3.732442855834961,5.535721778869629,6.097316741943359,8.449792861938477,8.838653564453125,9.703636169433594,10.478019714355469
2.023935317993164,3.231644630432129,4.344940185546875,5.037665367126465,6.302356719970703,6.547689437866211,8.314847946166992,8.826255798339844,11.00301742553711
2.006709575653076,3.5878419876098633,4.038691520690918,5.286693572998047,6.199836730957031,7.498741149902344,8.576750755310059,9.264945983886719,10.740518569946289
