1.0,2.0,3.0,4.0,5.0,6.0,7.0,8.0,9.0
61.0,81.0,101.0,121.0,141.0,161.0,181.0,201.0,221.0
1.9856691360473633,2.9925107955932617,4.032611846923828,4.98509407043457,6.029605865478516,6.793975830078125,7.972240447998047,9.088993072509766,9.813308715820312
1.9928216934204102,3.025531768798828,3.9806365966796875,5.0476789474487305,5.993843078613281,7.220745086669922,8.055686950683594,8.876800537109375,10.149002075195312
1.9892454147338867,3.009021282196045,4.006624221801758,5.01638650894165,6.011724472045898,7.007360458374023,8.01396369934082,8.98289680480957,9.981155395507812
