1.0,2.0,3.0,4.0,5.0,6.0,7.0,8.0,9.0
2.0,3.0,4.0,5.0,6.0,7.0,8.0,9.0,10.0
1.5512704849243164,2.1712779998779297,2.9108524322509766,3.487825393676758,4.181861877441406,5.031585693359375,5.6667327880859375,6.173133850097656,7.1620941162109375
1.5496015548706055,2.220630645751953,2.850770950317383,3.5300254821777344,4.220485687255859,4.994392395019531,5.756855010986328,6.4544677734375,7.252693176269531
1.550436019897461,2.1959543228149414,2.8808116912841797,3.508925437927246,4.201173782348633,5.012989044189453,5.711793899536133,6.313800811767578,7.207393646240234
