1.0,2.0,3.0,4.0,5.0,6.0,7.0,8.0,9.0
31.0,41.0,51.0,61.0,71.0,81.0,91.0,101.0,111.0
2.2351741790771484,3.62396240234375,7.724761962890625,-0.2503395080566406,6.5326690673828125,-3.3617019653320312,14.352798461914062,9.632110595703125,6.4849853515625
1.7344951629638672,2.1576881408691406,-0.10728836059570312,9.417533874511719,6.031990051269531,14.758110046386719,-0.095367431640625,1.7642974853515625,19.121170043945312
1.9848346710205078,2.8908252716064453,3.808736801147461,4.583597183227539,6.282329559326172,5.698204040527344,7.128715515136719,5.698204040527344,12.803077697753906
