1.0,2.0,3.0,4.0,5.0,6.0,7.0,8.0,9.0
2.0,3.0,4.0,5.0,6.0,7.0,8.0,9.0,10.0
2.193450927734375,1.6450881958007812,2.8848648071289062,5.4836273193359375,3.6954879760742188,-5.054473876953125,0.6198883056640625,9.393692016601562,9.298324584960938
0.19073486328125,5.936622619628906,4.541873931884766,0.40531158447265625,7.081031799316406,15.974044799804688,11.682510375976562,-1.049041748046875,7.5817108154296875
1.1920928955078125,3.7908554077148438,3.713369369506836,2.944469451904297,5.3882598876953125,5.459785461425781,6.1511993408203125,4.172325134277344,8.440017700195312
