1.0,2.0,3.0,4.0,5.0,6.0,7.0,8.0,9.0
251.0,261.0,271.0,281.0,291.0,301.0,311.0,321.0,331.0
-276.44635009765625,5.030632019042969,11.277198791503906,-7015.5625,256.01385498046875,638.437255859375,716.6385498046875,200675.875,0.0
402.2359619140625,7.688999176025391,4.315376281738281,7252.4306640625,-71.95472717285156,-745.105712890625,-616.5504150390625,-196730.0,0.0
62.89482498168945,6.35981559753418,7.796287536621094,118.4344482421875,92.02957153320312,-53.33423614501953,50.04405975341797,1972.9376220703125,0.0
